<svg version="1.1"
	 xmlns="http://www.w3.org/2000/svg" xmlns:xlink="http://www.w3.org/1999/xlink" xmlns:a="http://ns.adobe.com/AdobeSVGViewerExtensions/3.0/"
	 x="0px" y="0px" width="124.4px" height="103.8px" viewBox="0 0 124.4 103.8" style="enable-background:new 0 0 124.4 103.8;"
	 xml:space="preserve">
<style type="text/css">
	.st0{fill:#8FBB12;}
</style>
<defs>
</defs>
<g>
	<g>
		<path class="st0" d="M122.1,81.4L74.5,6.7C71.8,2.5,67.2,0,62.2,0c-5,0-9.6,2.5-12.3,6.7L2.3,81.4c-2.9,4.5-3,10.2-0.5,14.8
			c2.6,4.7,7.4,7.6,12.8,7.6h95.3c5.3,0,10.2-2.9,12.8-7.6C125.2,91.5,125,85.9,122.1,81.4L122.1,81.4z M62.2,91.2
			c-4.4,0-7.9-3.6-7.9-7.9c0-4.4,3.6-7.9,7.9-7.9c4.4,0,7.9,3.6,7.9,7.9C70.1,87.6,66.6,91.2,62.2,91.2L62.2,91.2z M73.2,36.1
			l-3.9,26.3c-0.6,3.9-4.2,6.5-8.1,6c-3.1-0.5-5.5-2.9-6-5.9L51,36.2c-1-6.1,3.2-11.9,9.3-12.9c6.1-1,11.9,3.2,12.9,9.3
			C73.4,33.8,73.4,35,73.2,36.1L73.2,36.1z M73.2,36.1"/>
	</g>
</g>
</svg>
